Timestamp	Longitude	Latitude	Node	CellID	LAC	NetworkTech	Level	Qual	SNR	CQI	LTERSSI	EventType	State
2015.02.08_00.07.35	-1.627286	48.117432	767	18475	25351	3G	-87	-	-	-	-	HANDOVER DATA	D
2015.02.08_00.07.38	-1.627258	48.117387	767	11286	25351	3G	-87	-	-	-	-	HANDOVER DATA	D
2015.02.08_00.07.42	-1.627258	48.117387	767	18475	25351	3G	-89	-	-	-	-	HANDOVER DATA	D
2015.02.08_00.07.43	-1.627230	48.117343	767	11286	25351	3G	-91	-	-	-	-	HANDOVER DATA	D
2015.02.08_00.07.48	-1.627189	48.117302	767	17106	25351	3G	-89	-	-	-	-	HANDOVER DATA	D
2015.02.08_00.08.02	-1.627022	48.117191	767	62634	25351	3G	-83	-	-	-	-	HANDOVER DATA	D
2015.02.08_00.08.10	-1.626893	48.117138	767	17106	25351	3G	-83	-	-	-	-	HANDOVER DATA	D
2015.02.08_00.08.11	-1.626893	48.117138	767	60839	25351	3G	-83	-	-	-	-	HANDOVER DATA	D
2015.02.08_00.11.08	-1.624571	48.116279	767	17106	25351	3G	-79	-	-	-	-	HANDOVER DATA	D
2015.02.08_00.15.21	-1.626696	48.114896	767	46465	25351	3G	-85	-	-	-	-	HANDOVER DATA	D
2015.02.08_00.15.22	-1.626696	48.114896	767	17106	25351	3G	-85	-	-	-	-	HANDOVER DATA	D
2015.02.08_00.15.45	-1.627015	48.114586	767	46465	25351	3G	-91	-	-	-	-	HANDOVER DATA	D
2015.02.08_00.16.17	-1.627327	48.114212	767	17106	25351	3G	-85	-	-	-	-	HANDOVER DATA	D
2015.02.08_00.17.25	-1.628688	48.114190	767	46465	25351	3G	-85	-	-	-	-	HANDOVER DATA	D
2015.02.08_00.17.29	-1.628769	48.114185	767	62634	25351	3G	-85	-	-	-	-	HANDOVER DATA	D
2015.02.08_00.17.31	-1.628769	48.114185	767	46465	25351	3G	-85	-	-	-	-	HANDOVER DATA	D
2015.02.08_00.18.01	-1.629431	48.114177	767	17106	25351	3G	-81	-	-	-	-	HANDOVER DATA	D
2015.02.08_00.18.02	-1.629431	48.114177	767	31075	25351	3G	-81	-	-	-	-	HANDOVER DATA	D
2015.02.08_00.18.10	-1.629586	48.114173	767	17106	25351	3G	-81	-	-	-	-	HANDOVER DATA	D
2015.02.08_00.18.47	-1.630405	48.114175	767	31075	25351	3G	-85	-	-	-	-	HANDOVER DATA	D
2015.02.08_00.20.04	-1.631158	48.113977	767	17106	25351	3G	-85	-	-	-	-	HANDOVER DATA	D
2015.02.08_00.20.35	-1.630428	48.114006	767	31075	25351	3G	-81	-	-	-	-	HANDOVER DATA	D
2015.02.08_00.20.38	-1.630428	48.114006	767	17106	25351	3G	-81	-	-	-	-	HANDOVER DATA	D
2015.02.08_00.21.47	-1.628992	48.113921	767	46465	25351	3G	-79	-	-	-	-	HANDOVER DATA	D
2015.02.08_00.22.10	-1.628491	48.113995	767	17106	25351	3G	-85	-	-	-	-	HANDOVER DATA	D
2015.02.08_00.27.55	-1.621445	48.114094	767	38805	25351	3G	-61	-	-	-	-	HANDOVER DATA	D
2015.02.08_00.30.16	-1.621325	48.112304	767	46465	25351	3G	-69	-	-	-	-	HANDOVER DATA	D
2015.02.08_00.31.46	-1.622517	48.111410	767	38805	25351	3G	-81	-	-	-	-	HANDOVER DATA	D
2015.02.08_00.33.46	-1.620659	48.111532	767	46465	25351	3G	-79	-	-	-	-	HANDOVER DATA	D
2015.02.08_00.34.19	-1.621097	48.111864	767	38805	25351	3G	-69	-	-	-	-	HANDOVER DATA	D
2015.02.08_00.40.10	-1.616658	48.114116	768	64537	25351	3G	-75	-	-	-	-	HANDOVER DATA	D
2015.02.08_00.42.18	-1.614160	48.114179	768	62552	25375	3G	-75	-	-	-	-	HANDOVER DATA	D
2015.02.08_00.43.34	-1.615002	48.114228	767	38805	25351	3G	-75	-	-	-	-	HANDOVER DATA	D
2015.02.08_00.43.39	-1.615151	48.114228	768	64537	25351	3G	-75	-	-	-	-	HANDOVER DATA	D
2015.02.08_00.43.52	-1.615286	48.114366	768	62552	25375	3G	-75	-	-	-	-	CELL RESELECTION	I
2015.02.08_00.44.22	-1.615677	48.114329	767	38805	25375	3G	-75	-	-	-	-	HANDOVER DATA	D
2015.02.08_00.49.35	-1.621137	48.114659	767	60839	25351	3G	-59	-	-	-	-	HANDOVER DATA	D
2015.02.08_00.53.22	-1.621452	48.117603	767	62634	25351	3G	-85	-	-	-	-	HANDOVER DATA	D
2015.02.08_00.53.26	-1.621536	48.117597	767	31075	25351	3G	-89	-	-	-	-	HANDOVER DATA	D
2015.02.08_00.53.39	-1.621776	48.117613	767	62634	25351	3G	-91	-	-	-	-	HANDOVER DATA	D
2015.02.08_00.53.40	-1.621776	48.117613	767	46465	25351	3G	-91	-	-	-	-	HANDOVER DATA	D
2015.02.08_00.54.02	-1.622243	48.117629	767	62634	25351	3G	-89	-	-	-	-	HANDOVER DATA	D
2015.02.08_00.54.38	-1.622936	48.117610	767	46465	25351	3G	-89	-	-	-	-	HANDOVER DATA	D
2015.02.08_00.55.08	-1.623551	48.117560	767	60839	25351	3G	-85	-	-	-	-	HANDOVER DATA	D
2015.02.08_00.55.14	-1.623609	48.117529	767	46465	25351	3G	-85	-	-	-	-	HANDOVER DATA	D
2015.02.08_00.55.24	-1.623765	48.117424	767	17106	25351	3G	-85	-	-	-	-	HANDOVER DATA	D
2015.02.08_00.55.47	-1.624177	48.117601	767	60839	25351	3G	-85	-	-	-	-	HANDOVER DATA	D
2015.02.08_00.57.57	-1.626777	48.117526	767	23826	25351	3G	-85	-	-	-	-	HANDOVER DATA	D
2015.02.08_00.57.58	-1.626777	48.117526	767	7697	25351	3G	-85	-	-	-	-	HANDOVER DATA	D
2015.02.08_00.57.59	-1.626777	48.117526	767	17106	25351	3G	-85	-	-	-	-	HANDOVER DATA	D
2015.02.08_00.58.04	-1.626843	48.117552	767	60839	25351	3G	-85	-	-	-	-	HANDOVER DATA	D
2015.02.08_00.58.07	-1.626917	48.117573	767	17106	25351	3G	-85	-	-	-	-	HANDOVER DATA	D
2015.02.08_00.58.11	-1.627000	48.117574	767	60839	25351	3G	-85	-	-	-	-	HANDOVER DATA	D
2015.02.08_00.58.13	-1.627000	48.117574	767	17106	25351	3G	-89	-	-	-	-	HANDOVER DATA	D
2015.02.08_00.58.17	-1.627085	48.117567	767	60839	25351	3G	-91	-	-	-	-	CELL RESELECTION	I
