Lat	Lon	Node	Cell	Technology	LAC	State
48.117436	-1.627349	767	60839	3G	25351	unknown
48.117437	-1.627330	767	62634	3G	25351	unknown
48.117437	-1.627330	767	46465	3G	25351	unknown
48.117437	-1.627330	767	17106	3G	25351	unknown
48.114186	-1.630392	767	31075	3G	25351	unknown
48.114102	-1.621836	767	38805	3G	25351	unknown
48.114194	-1.614663	768	64537	3G	25375	unknown
48.114184	-1.614577	768	62552	3G	25375	changed
